…
The results are much better as now we get a better understanding of the novels. For someone who hasn't read the novel, they could easily deduce who the main characters are.

We can also extract the top three words by novel using dplyr's useful data manipulation functions

``` r
series %>%
  anti_join(stop_words) %>% # removes all stop words
  group_by(book) %>%
  count(word, sort = TRUE) %>%
  top_n(3) %>%
  rename(total_count = n) %>% # renames column to total_count
  arrange(book) # order by chronological order of publication
```

    ## # A tibble: 21 x 3
    ## # Groups:   book [7]
    ##    book                word     total_count
    ##    <fct>               <chr>          <int>
    ##  1 Philosopher's Stone harry           1213
    ##  2 Philosopher's Stone ron              410
    ##  3 Philosopher's Stone hagrid           336
    ##  4 Chamber of Secrets  harry           1503
    ##  5 Chamber of Secrets  ron              650
    ##  6 Chamber of Secrets  hermione         289
    ##  7 Prisoner of Azkaban harry           1824
    ##  8 Prisoner of Azkaban ron              690
    ##  9 Prisoner of Azkaban hermione         603
    ## 10 Goblet of Fire      harry           2936
    ## # … with 11 more rows
…
